…
    phylo.stats

    ## # A tibble: 371 x 11
    ##    host.id tree.id  tips reads subgraphs clades overall.rtt largest.rtt
    ##    <chr>   <chr>   <dbl> <dbl>     <dbl>  <dbl>       <dbl>       <dbl>
    ##  1 PAT_3   1000_t…    11   418         1      1    0.00661     0.00661 
    ##  2 PAT_4   1000_t…     4    97         1      3    0.0102      0.0102  
    ##  3 PAT_5   1000_t…    16   220         1      9    0.0106      0.0106  
    ##  4 PAT_2   1000_t…     5   289         1      4    0.000235    0.000235
    ##  5 PAT_7   1000_t…    12   262         1      1    0.0131      0.0131  
    ##  6 PAT_1   1000_t…     6   703         3      3    0.00611     0       
    ##  7 PAT_6   1000_t…     1    53         1      1    0           0       
    ##  8 PAT_3   1160_t…     7   384         1      1    0.00368     0.00368 
    ##  9 PAT_4   1160_t…     5    75         3      3    0.0142      0.00563 
    ## 10 PAT_5   1160_t…    25   312         7     11    0.0132      0.00195 
    ## # … with 361 more rows, and 3 more variables: max.branch.length <dbl>,
    ## #   max.pat.distance <dbl>, global.mean.pat.distance <dbl>

    options(tibble.print_min = 20, tibble.width = Inf)

    phylo.stats

    ## # A tibble: 371 x 11
    ##    host.id tree.id       tips reads subgraphs clades overall.rtt largest.rtt
    ##    <chr>   <chr>        <dbl> <dbl>     <dbl>  <dbl>       <dbl>       <dbl>
    ##  1 PAT_3   1000_to_1319    11   418         1      1   0.00661     0.00661  
    ##  2 PAT_4   1000_to_1319     4    97         1      3   0.0102      0.0102   
    ##  3 PAT_5   1000_to_1319    16   220         1      9   0.0106      0.0106   
    ##  4 PAT_2   1000_to_1319     5   289         1      4   0.000235    0.000235 
    ##  5 PAT_7   1000_to_1319    12   262         1      1   0.0131      0.0131   
    ##  6 PAT_1   1000_to_1319     6   703         3      3   0.00611     0        
    ##  7 PAT_6   1000_to_1319     1    53         1      1   0           0        
    ##  8 PAT_3   1160_to_1479     7   384         1      1   0.00368     0.00368  
    ##  9 PAT_4   1160_to_1479     5    75         3      3   0.0142      0.00563  
    ## 10 PAT_5   1160_to_1479    25   312         7     11   0.0132      0.00195  
    ## 11 PAT_2   1160_to_1479     2   333         2      2   0.0000445   0        
    ## 12 PAT_7   1160_to_1479     5   215         1      1   0.0216      0.0216   
    ## 13 PAT_1   1160_to_1479     6   669         1      4   0.000130    0.000130 
    ## 14 PAT_6   1160_to_1479     1    68         1      1   0           0        
    ## 15 PAT_3   1320_to_1639     5   334         2      5   0.00057     0.000494 
    ## 16 PAT_4   1320_to_1639     3    73         1      3   0.00444     0.00444  
    ## 17 PAT_5   1320_to_1639    19   172         5     13   0.0156      0        
    ## 18 PAT_2   1320_to_1639     2   266         2      2   0.0000542   0        
    ## 19 PAT_7   1320_to_1639     4   232         1      1   0.0119      0.0119   
    ## 20 PAT_1   1320_to_1639     4   623         1      3   0.0000798   0.0000798
    ##    max.branch.length max.pat.distance global.mean.pat.distance
    ##                <dbl>            <dbl>                    <dbl>
    ##  1           0.00676          0.0201                   0.0116 
    ##  2           0.0104           0.0276                   0.0167 
    ##  3           0.0102           0.0373                   0.0188 
    ##  4           0.00678          0.0136                   0.0102 
    ##  5           0.0106           0.0454                   0.0238 
    ##  6           0.00675          0.0203                   0.0115 
    ##  7          NA               NA                       NA      
    ##  8           0.00702          0.0140                   0.00866
    ##  9           0.0147           0.0405                   0.0212 
    ## 10           0.0149           0.0547                   0.0292 
    ## 11           0.00725          0.00725                  0.00725
    ## 12           0.0193           0.0344                   0.0195 
    ## 13           0.00729          0.0216                   0.0106 
    ## 14          NA               NA                       NA      
    ## 15           0.0104           0.0173                   0.0124 
    ## 16           0.0106           0.0176                   0.0117 
    ## 17           0.0146           0.0634                   0.0282 
    ## 18           0.00708          0.00708                  0.00708
    ## 19           0.0106           0.0244                   0.0140 
    ## 20           0.00351          0.00702                  0.00584
    ## # … with 351 more rows
…
    phylo.relationships <- read_csv("example_pairwise_relationships.csv")

    ## Parsed with column specification:
    ## cols(
    ##   host.1 = col_character(),
    ##   host.2 = col_character(),
    ##   ancestry = col_character(),
    ##   ancestry.tree.count = col_double()
    ## )

    phylo.relationships

    ## # A tibble: 12 x 4
    ##    host.1 host.2 ancestry   ancestry.tree.count
    ##    <chr>  <chr>  <chr>                    <dbl>
    ##  1 PAT_5  PAT_2  complex                      9
    ##  2 PAT_5  PAT_2  multiTrans                   2
    ##  3 PAT_5  PAT_2  noAncestry                   1
    ##  4 PAT_5  PAT_2  trans                        9
    ##  5 PAT_2  PAT_5  multiTrans                   3
    ##  6 PAT_2  PAT_5  trans                        4
    ##  7 PAT_2  PAT_1  complex                      3
    ##  8 PAT_2  PAT_1  multiTrans                  10
    ##  9 PAT_2  PAT_1  noAncestry                   2
    ## 10 PAT_2  PAT_1  trans                       13
    ## # … with 2 more rows

    phylo.relationships %>% 
      left_join(metadata, by=c("host.1" = "participant_id")) %>%
      left_join(metadata, by=c("host.2" = "participant_id"))

    ## # A tibble: 12 x 10
    ##    host.1 host.2 ancestry ancestry.tree.c… gender.x age.x dob.x      gender.y
    ##    <chr>  <chr>  <chr>               <dbl> <chr>    <dbl> <date>     <chr>   
    ##  1 PAT_5  PAT_2  complex                 9 F           19 1992-08-23 F       
    ##  2 PAT_5  PAT_2  multiTr…                2 F           19 1992-08-23 F       
    ##  3 PAT_5  PAT_2  noAnces…                1 F           19 1992-08-23 F       
    ##  4 PAT_5  PAT_2  trans                   9 F           19 1992-08-23 F       
    ##  5 PAT_2  PAT_5  multiTr…                3 F           26 1986-02-20 F       
    ##  6 PAT_2  PAT_5  trans                   4 F           26 1986-02-20 F       
    ##  7 PAT_2  PAT_1  complex                 3 F           26 1986-02-20 M       
    ##  8 PAT_2  PAT_1  multiTr…               10 F           26 1986-02-20 M       
    ##  9 PAT_2  PAT_1  noAnces…                2 F           26 1986-02-20 M       
    ## 10 PAT_2  PAT_1  trans                  13 F           26 1986-02-20 M       
    ## # … with 2 more rows, and 2 more variables: age.y <dbl>, dob.y <date>
…
(I usually use <tt>map</tt> with anonymous functions.)

    phylo.relationships %<>% 
      left_join(metadata, by=c("host.1" = "participant_id")) %>%
      left_join(metadata, by=c("host.2" = "participant_id"))


    phylo.relationships %>%
      mutate(age.difference = map2_dbl(age.x, age.y, function(x, y){
        x - y
      })) %>%
      select(host.1, host.2, gender.x, gender.y, age.x, age.y, age.difference)

    ## # A tibble: 12 x 7
    ##    host.1 host.2 gender.x gender.y age.x age.y age.difference
    ##    <chr>  <chr>  <chr>    <chr>    <dbl> <dbl>          <dbl>
    ##  1 PAT_5  PAT_2  F        F           19    26             -7
    ##  2 PAT_5  PAT_2  F        F           19    26             -7
    ##  3 PAT_5  PAT_2  F        F           19    26             -7
    ##  4 PAT_5  PAT_2  F        F           19    26             -7
    ##  5 PAT_2  PAT_5  F        F           26    19              7
    ##  6 PAT_2  PAT_5  F        F           26    19              7
    ##  7 PAT_2  PAT_1  F        M           26    39            -13
    ##  8 PAT_2  PAT_1  F        M           26    39            -13
    ##  9 PAT_2  PAT_1  F        M           26    39            -13
    ## 10 PAT_2  PAT_1  F        M           26    39            -13
    ## # … with 2 more rows
…
    phylo.stats

    ## # A tibble: 371 x 11
    ##    host.id tree.id  tips reads subgraphs clades overall.rtt largest.rtt
    ##    <chr>   <chr>   <dbl> <dbl>     <dbl>  <dbl>       <dbl>       <dbl>
    ##  1 PAT_3   1000_t…    11   418         1      1    0.00661     0.00661 
    ##  2 PAT_4   1000_t…     4    97         1      3    0.0102      0.0102  
    ##  3 PAT_5   1000_t…    16   220         1      9    0.0106      0.0106  
    ##  4 PAT_2   1000_t…     5   289         1      4    0.000235    0.000235
    ##  5 PAT_7   1000_t…    12   262         1      1    0.0131      0.0131  
    ##  6 PAT_1   1000_t…     6   703         3      3    0.00611     0       
    ##  7 PAT_6   1000_t…     1    53         1      1    0           0       
    ##  8 PAT_3   1160_t…     7   384         1      1    0.00368     0.00368 
    ##  9 PAT_4   1160_t…     5    75         3      3    0.0142      0.00563 
    ## 10 PAT_5   1160_t…    25   312         7     11    0.0132      0.00195 
    ## # … with 361 more rows, and 3 more variables: max.branch.length <dbl>,
    ## #   max.pat.distance <dbl>, global.mean.pat.distance <dbl>

This table is in *long* format. Observations about one patient appear on
multiple rows, with a single column (tree.id) telling you something
about the numbers in other columns (in this case, which phylogeny the
statistics were taken from).

    phylo.stats %>% filter(host.id == "PAT_1")

    ## # A tibble: 53 x 11
    ##    host.id tree.id  tips reads subgraphs clades overall.rtt largest.rtt
    ##    <chr>   <chr>   <dbl> <dbl>     <dbl>  <dbl>       <dbl>       <dbl>
    ##  1 PAT_1   1000_t…     6   703         3      3   0.00611     0        
    ##  2 PAT_1   1160_t…     6   669         1      4   0.000130    0.000130 
    ##  3 PAT_1   1320_t…     4   623         1      3   0.0000798   0.0000798
    ##  4 PAT_1   1480_t…     2   714         1      2   0.000001    0.000001 
    ##  5 PAT_1   1640_t…     7   728         1      4   0.000118    0.000118 
    ##  6 PAT_1   1800_t…     7   734         7      7   0.00186     0        
    ##  7 PAT_1   1960_t…     6   416         5      5   0.000624    0        
    ##  8 PAT_1   2120_t…     2   153         2      2   0.000001    0        
    ##  9 PAT_1   2280_t…     2   207         2      2   0.000001    0        
    ## 10 PAT_1   2440_t…     1    19         1      1   0           0        
    ## # … with 43 more rows, and 3 more variables: max.branch.length <dbl>,
    ## #   max.pat.distance <dbl>, global.mean.pat.distance <dbl>

To move to wide data, we make every patient a row, and every different
type of observation about that patient (i.e. each stat in each window),
a column. Let’s work only with the number of phylogeny tips. Then call
<tt>pivot\_wider</tt>:

    phylo.stats %>% select(host.id, tree.id, tips)

    ## # A tibble: 371 x 3
    ##    host.id tree.id       tips
    ##    <chr>   <chr>        <dbl>
    ##  1 PAT_3   1000_to_1319    11
    ##  2 PAT_4   1000_to_1319     4
    ##  3 PAT_5   1000_to_1319    16
    ##  4 PAT_2   1000_to_1319     5
    ##  5 PAT_7   1000_to_1319    12
    ##  6 PAT_1   1000_to_1319     6
    ##  7 PAT_6   1000_to_1319     1
    ##  8 PAT_3   1160_to_1479     7
    ##  9 PAT_4   1160_to_1479     5
    ## 10 PAT_5   1160_to_1479    25
    ## # … with 361 more rows
…
Of course, you can convert back again. The second argument to
<tt>pivot\_longer</tt> (the first after the data, which does not appear
here because of the pipe) is the set of columns to gather.

    phylo.stats.wide %>% pivot_longer(2:54)

    ## # A tibble: 371 x 3
    ##    host.id name         value
    ##    <chr>   <chr>        <dbl>
    ##  1 PAT_3   1000_to_1319    11
    ##  2 PAT_3   1160_to_1479     7
    ##  3 PAT_3   1320_to_1639     5
    ##  4 PAT_3   1480_to_1799     4
    ##  5 PAT_3   1640_to_1959     6
    ##  6 PAT_3   1800_to_2119     3
    ##  7 PAT_3   1960_to_2279     3
    ##  8 PAT_3   2120_to_2439     3
    ##  9 PAT_3   2280_to_2599     2
    ## 10 PAT_3   2440_to_2759     2
    ## # … with 361 more rows

The new columns can be given custom names:

    phylo.stats.wide %>% pivot_longer(2:54, names_to = "tree.id", values_to="tips")

    ## # A tibble: 371 x 3
    ##    host.id tree.id       tips
    ##    <chr>   <chr>        <dbl>
    ##  1 PAT_3   1000_to_1319    11
    ##  2 PAT_3   1160_to_1479     7
    ##  3 PAT_3   1320_to_1639     5
    ##  4 PAT_3   1480_to_1799     4
    ##  5 PAT_3   1640_to_1959     6
    ##  6 PAT_3   1800_to_2119     3
    ##  7 PAT_3   1960_to_2279     3
    ##  8 PAT_3   2120_to_2439     3
    ##  9 PAT_3   2280_to_2599     2
    ## 10 PAT_3   2440_to_2759     2
    ## # … with 361 more rows
…
